Test pace16-fvs-instances/001.graph:           (time 5:00.00 )    TIMEOUT
Test pace16-fvs-instances/002.graph:           (time 0:00.00 )    solution size =   47, opt =   47         OK
Test pace16-fvs-instances/003.graph:           (time 0:00.00 )    solution size =   10, opt =   10         OK
Test pace16-fvs-instances/004.graph:           (time 5:00.00 )    TIMEOUT
Test pace16-fvs-instances/005.graph:           (time 0:01.14 )    solution size =   19, opt =   19         OK
Test pace16-fvs-instances/006.graph:           (time 0:00.05 )    solution size =   11, opt =   11         OK
Test pace16-fvs-instances/007.graph:           (time 0:00.01 )    solution size =   17, opt =   17         OK
Test pace16-fvs-instances/008.graph:           (time 5:00.00 )    TIMEOUT
Test pace16-fvs-instances/009.graph:           (time 0:00.78 )    solution size =   21, opt =   21         OK
Test pace16-fvs-instances/010.graph:           (time 5:00.00 )    TIMEOUT
Test pace16-fvs-instances/011.graph:           (time 1:50.95 )    solution size =   36, opt =   36         OK
Test pace16-fvs-instances/012.graph:           (time 0:00.00 )    solution size =   29, opt =   29         OK
Test pace16-fvs-instances/013.graph:           (time 0:00.02 )    solution size =   69, opt =   69         OK
Test pace16-fvs-instances/014.graph:           (time 5:00.00 )    TIMEOUT
Test pace16-fvs-instances/015.graph:           (time 0:00.00 )    solution size =   18, opt =   18         OK
Test pace16-fvs-instances/016.graph:           (time 5:00.00 )    TIMEOUT
Test pace16-fvs-instances/017.graph:           (time 5:00.00 )    TIMEOUT
Test pace16-fvs-instances/018.graph:           (time 5:00.00 )    TIMEOUT
Test pace16-fvs-instances/019.graph:           (time 0:00.01 )    solution size =  256, opt =  256         OK
Test pace16-fvs-instances/020.graph:           (time 0:00.00 )    solution size =    8, opt =    8         OK
Test pace16-fvs-instances/021.graph:           (time 5:00.00 )    TIMEOUT
Test pace16-fvs-instances/022.graph:           (time 5:00.01 )    TIMEOUT
Test pace16-fvs-instances/023.graph:           (time 5:00.00 )    TIMEOUT
Test pace16-fvs-instances/024.graph:           (time 0:00.02 )    solution size =   21, opt =   21         OK
Test pace16-fvs-instances/025.graph:           (time 5:00.00 )    TIMEOUT
Test pace16-fvs-instances/026.graph:           (time 5:00.00 )    TIMEOUT
Test pace16-fvs-instances/027.graph:           (time 0:00.00 )    solution size =   32, opt =   32         OK
Test pace16-fvs-instances/028.graph:           (time 0:00.00 )    solution size =    8, opt =    8         OK
Test pace16-fvs-instances/029.graph:           (time 5:00.00 )    TIMEOUT
Test pace16-fvs-instances/030.graph:           (time 0:00.01 )    solution size =   19, opt =   19         OK
Test pace16-fvs-instances/031.graph:           (time 0:00.00 )    solution size =   33, opt =   33         OK
Test pace16-fvs-instances/032.graph:           (time 5:00.00 )    TIMEOUT
Test pace16-fvs-instances/033.graph:           (time 0:00.20 )    solution size =  156, opt =  156         OK
Test pace16-fvs-instances/034.graph:           (time 5:00.00 )    TIMEOUT
Test pace16-fvs-instances/035.graph:           (time 5:00.00 )    TIMEOUT
Test pace16-fvs-instances/036.graph:           (time 5:00.00 )    TIMEOUT
Test pace16-fvs-instances/037.graph:           (time 0:41.38 )    solution size =  191, opt =  191         OK
Test pace16-fvs-instances/038.graph:           (time 5:00.01 )    TIMEOUT
Test pace16-fvs-instances/039.graph:           (time 5:00.03 )    TIMEOUT
Test pace16-fvs-instances/040.graph:           (time 5:00.01 )    TIMEOUT
Test pace16-fvs-instances/041.graph:           (time 0:00.26 )    solution size = 2664, opt = 2664         OK
Test pace16-fvs-instances/042.graph:           (time 0:00.00 )    solution size =   11, opt =   11         OK
Test pace16-fvs-instances/043.graph:           (time 5:00.00 )    TIMEOUT
Test pace16-fvs-instances/044.graph:           (time 0:00.81 )    solution size =   24, opt =   24         OK
Test pace16-fvs-instances/045.graph:           (time 0:00.14 )    solution size = 4900, opt = 4900         OK
Test pace16-fvs-instances/046.graph:           (time 0:02.48 )    solution size =   18, opt =   18         OK
Test pace16-fvs-instances/047.graph:           (time 5:00.00 )    TIMEOUT
Test pace16-fvs-instances/048.graph:           (time 5:00.00 )    TIMEOUT
Test pace16-fvs-instances/049.graph:           (time 0:00.11 )    solution size =   48, opt =   48         OK
Test pace16-fvs-instances/050.graph:           (time 0:00.00 )    solution size =    7, opt =    7         OK
Test pace16-fvs-instances/051.graph:           (time 5:00.00 )    TIMEOUT
Test pace16-fvs-instances/052.graph:           (time 5:00.00 )    TIMEOUT
Test pace16-fvs-instances/053.graph:           (time 5:00.00 )    TIMEOUT
Test pace16-fvs-instances/054.graph:           (time 5:00.00 )    TIMEOUT
Test pace16-fvs-instances/055.graph:           (time 5:00.00 )    TIMEOUT
Test pace16-fvs-instances/056.graph:           (time 5:00.00 )    TIMEOUT
Test pace16-fvs-instances/057.graph:           (time 5:00.00 )    TIMEOUT
Test pace16-fvs-instances/058.graph:           (time 5:00.09 )    TIMEOUT
Test pace16-fvs-instances/059.graph:           (time 0:00.14 )    solution size =   18, opt =   18         OK
Test pace16-fvs-instances/060.graph:           (time 5:00.00 )    TIMEOUT
Test pace16-fvs-instances/061.graph:           (time 5:00.00 )    TIMEOUT
Test pace16-fvs-instances/062.graph:           (time 0:00.00 )    solution size =    7, opt =    7         OK
Test pace16-fvs-instances/063.graph:           (time 5:00.00 )    TIMEOUT
Test pace16-fvs-instances/064.graph:           (time 5:00.00 )    TIMEOUT
Test pace16-fvs-instances/065.graph:           (time 0:00.00 )    solution size =   21, opt =   21         OK
Test pace16-fvs-instances/066.graph:           (time 5:00.00 )    TIMEOUT
Test pace16-fvs-instances/067.graph:           (time 5:00.00 )    TIMEOUT
Test pace16-fvs-instances/068.graph:           (time 5:00.01 )    TIMEOUT
Test pace16-fvs-instances/069.graph:           (time 5:00.00 )    TIMEOUT
Test pace16-fvs-instances/070.graph:           (time 0:00.00 )    solution size =   19, opt =   19         OK
Test pace16-fvs-instances/071.graph:           (time 5:00.00 )    TIMEOUT
Test pace16-fvs-instances/072.graph:           (time 0:00.00 )    solution size =    9, opt =    9         OK
Test pace16-fvs-instances/073.graph:           (time 5:00.00 )    TIMEOUT
Test pace16-fvs-instances/074.graph:           (time 5:00.01 )    TIMEOUT
Test pace16-fvs-instances/075.graph:           (time 5:00.00 )    TIMEOUT
Test pace16-fvs-instances/076.graph:           (time 5:00.00 )    TIMEOUT
Test pace16-fvs-instances/077.graph:           (time 0:00.01 )    solution size =   16, opt =   16         OK
Test pace16-fvs-instances/078.graph:           (time 5:00.00 )    TIMEOUT
Test pace16-fvs-instances/079.graph:           (time 5:00.04 )    TIMEOUT
Test pace16-fvs-instances/080.graph:           (time 5:00.00 )    TIMEOUT
Test pace16-fvs-instances/081.graph:           (time 5:00.00 )    TIMEOUT
Test pace16-fvs-instances/082.graph:           (time 5:00.01 )    TIMEOUT
Test pace16-fvs-instances/083.graph:           (time 0:00.00 )    solution size =    7, opt =    7         OK
Test pace16-fvs-instances/084.graph:           (time 5:00.00 )    TIMEOUT
Test pace16-fvs-instances/085.graph:           (time 0:00.00 )    solution size =   51, opt =   51         OK
Test pace16-fvs-instances/086.graph:           (time 5:00.00 )    TIMEOUT
Test pace16-fvs-instances/087.graph:           (time 5:00.00 )    TIMEOUT
Test pace16-fvs-instances/088.graph:           (time 5:00.00 )    TIMEOUT
Test pace16-fvs-instances/089.graph:           (time 5:00.00 )    TIMEOUT
Test pace16-fvs-instances/090.graph:           (time 5:00.00 )    TIMEOUT
Test pace16-fvs-instances/091.graph:           (time 0:00.03 )    solution size =   21, opt =   21         OK
Test pace16-fvs-instances/092.graph:           (time 2:23.24 )    solution size =   16, opt unknown        OK
Test pace16-fvs-instances/093.graph:           (time 5:00.00 )    TIMEOUT
Test pace16-fvs-instances/094.graph:           (time 5:00.00 )    TIMEOUT
Test pace16-fvs-instances/095.graph:           (time 0:00.00 )    solution size =    8, opt =    8         OK
Test pace16-fvs-instances/096.graph:           (time 0:00.00 )    solution size =    6, opt =    6         OK
Test pace16-fvs-instances/097.graph:           (time 5:00.00 )    TIMEOUT
Test pace16-fvs-instances/098.graph:           (time 0:00.00 )    solution size =   18, opt =   18         OK
Test pace16-fvs-instances/099.graph:           (time 0:00.00 )    solution size =    8, opt =    8         OK
Test pace16-fvs-instances/100.graph:           (time 5:00.00 )    TIMEOUT
-----------------------
Passed 40 out of 100
