TIME LIMIT = 600
TEST BATCH = perf

Test pace16-fvs-instances/005.graph:           (time 0:00.49 )    solution size =   19, opt =   19         OK
Test pace16-fvs-instances/009.graph:           (time 0:00.22 )    solution size =   21, opt =   21         OK
Test pace16-fvs-instances/011.graph:           (time 0:26.47 )    solution size =   36, opt =   36         OK
Test pace16-fvs-instances/037.graph:           (time 0:12.23 )    solution size =  191, opt =  191         OK
Test pace16-fvs-instances/044.graph:           (time 0:00.15 )    solution size =   24, opt =   24         OK
Test pace16-fvs-instances/046.graph:           (time 0:01.71 )    solution size =   18, opt =   18         OK
Test pace16-fvs-instances/049.graph:           (time 0:00.04 )    solution size =   48, opt =   48         OK
Test pace16-fvs-instances/092.graph:           (time 1:53.11 )    solution size =   16, opt =   16         OK
-----------------------
Passed 8 out of 8
