TIME LIMIT = 3600

Test pace16-fvs-instances/005.graph:           (time 0:00.31 )    solution size =   19, opt =   19         OK
Test pace16-fvs-instances/009.graph:           (time 0:00.20 )    solution size =   21, opt =   21         OK
Test pace16-fvs-instances/011.graph:           (time 0:24.13 )    solution size =   36, opt =   36         OK
Test pace16-fvs-instances/037.graph:           (time 0:16.10 )    solution size =  191, opt =  191         OK
Test pace16-fvs-instances/044.graph:           (time 0:00.18 )    solution size =   24, opt =   24         OK
Test pace16-fvs-instances/046.graph:           (time 0:00.87 )    solution size =   18, opt =   18         OK
Test pace16-fvs-instances/049.graph:           (time 0:00.02 )    solution size =   48, opt =   48         OK
Test pace16-fvs-instances/092.graph:           (time 0:55.65 )    solution size =   16, opt =   16         OK
Test pace16-fvs-instances/017.graph:           (time 1:23.92 )    solution size =   45, opt =   45         OK
Test pace16-fvs-instances/076.graph:           (time 0:02.42 )    solution size =   32, opt =   32         OK
Test pace16-fvs-instances/069.graph:           (time 6:58.05 )    solution size =   35, opt =   35         OK
Test pace16-fvs-instances/051.graph:           (time 13:52.05 )    solution size =   27, opt =   27         OK
-----------------------
Passed 12 out of 12
